[
  {
    "type": "get",
    "url": "/event/:id",
    "title": "Event",
    "name": "getEvent",
    "group": "Event",
    "description": "<p>Retourne un evenement en particulier</p>",
    "parameter": {
      "fields": {
        "Parameter": [
          {
            "group": "Parameter",
            "type": "Number",
            "optional": false,
            "field": "id",
            "description": "<p>id de l'événement.</p>"
          }
        ]
      }
    },
    "success": {
      "examples": [
        {
          "title": "Success-Response:",
          "content": "HTTP/1.1 200 OK\n{\n  \"id_event\": 8,\n  \"intitule\": \"Natation\",\n  \"date_debut\": \"2016-03-16\",\n  \"date_fin\": \"2016-03-16\",\n  \"date_inscription\": \"0000-00-00\",\n  \"nb_place\": 12,\n  \"adresse\": \"50 rue Piscine\",\n  \"description\": \"Natation Cool !\",\n  \"photo\": \"images/natation.jpg\",\n  \"prix\": 15,\n  \"id_organisateur\": 2,\n  \"id_categorie\": 2,\n  \"id_ville\": 1,\n  \"date_ajout\": \"2016-03-15 03:06:19\",\n  \"categorie\": {\n    \"id_categorie\": 2,\n    \"titre\": \"Natation\"\n  },\n  \"ville\": {\n     \"id_ville\": 1,\n     \"ville\": \"Nancy\",\n     \"departement\": \"Meurthe-et-Moselle\",\n     \"code_postal\": 54000\n  }\n}",
          "type": "json"
        }
      ]
    },
    "version": "0.0.0",
    "filename": "api/app/doc.php",
    "groupTitle": "Event"
  },
  {
    "type": "get",
    "url": "/liste",
    "title": "Liste des évenements",
    "name": "getListe",
    "group": "Event",
    "description": "<p>Retourne la liste compléte des événements</p>",
    "success": {
      "examples": [
        {
          "title": "Success-Response:",
          "content": "HTTP/1.1 200 OK\n{\n  \"id_event\": 8,\n  \"intitule\": \"Natation\",\n  \"date_debut\": \"2016-03-16\",\n  \"date_fin\": \"2016-03-16\",\n  \"date_inscription\": \"0000-00-00\",\n  \"nb_place\": 12,\n  \"adresse\": \"50 rue Piscine\",\n  \"description\": \"Natation Cool !\",\n  \"photo\": \"images/natation.jpg\",\n  \"prix\": 15,\n  \"id_organisateur\": 2,\n  \"id_categorie\": 2,\n  \"id_ville\": 1,\n  \"date_ajout\": \"2016-03-15 03:06:19\",\n  \"categorie\": {\n    \"id_categorie\": 2,\n    \"titre\": \"Natation\"\n  },\n  \"ville\": {\n     \"id_ville\": 1,\n     \"ville\": \"Nancy\",\n     \"departement\": \"Meurthe-et-Moselle\",\n     \"code_postal\": 54000\n  }\n}",
          "type": "json"
        }
      ]
    },
    "version": "0.0.0",
    "filename": "api/app/doc.php",
    "groupTitle": "Event"
  },
  {
    "type": "get",
    "url": "/listeAccueil",
    "title": "Liste 6 derniers événements",
    "name": "getListeAccueil",
    "group": "Event",
    "description": "<p>Retourne la liste des 6 derniers événements (pratique pour une page d'accueil)</p>",
    "success": {
      "examples": [
        {
          "title": "Success-Response:",
          "content": "HTTP/1.1 200 OK\n{\n  \"id_event\": 8,\n  \"intitule\": \"Natation\",\n  \"date_debut\": \"2016-03-16\",\n  \"date_fin\": \"2016-03-16\",\n  \"date_inscription\": \"0000-00-00\",\n  \"nb_place\": 12,\n  \"adresse\": \"50 rue Piscine\",\n  \"description\": \"Natation Cool !\",\n  \"photo\": \"images/natation.jpg\",\n  \"prix\": 15,\n  \"id_organisateur\": 2,\n  \"id_categorie\": 2,\n  \"id_ville\": 1,\n  \"date_ajout\": \"2016-03-15 03:06:19\",\n  \"categorie\": {\n    \"id_categorie\": 2,\n    \"titre\": \"Natation\"\n  },\n  \"ville\": {\n     \"id_ville\": 1,\n     \"ville\": \"Nancy\",\n     \"departement\": \"Meurthe-et-Moselle\",\n     \"code_postal\": 54000\n  }\n}",
          "type": "json"
        }
      ]
    },
    "version": "0.0.0",
    "filename": "api/app/doc.php",
    "groupTitle": "Event"
  },
  {
    "type": "get",
    "url": "/nbPlaceEvent/:id",
    "title": "Nombre Place Event",
    "name": "getPlaceEvent",
    "group": "Event",
    "description": "<p>Permet de retourner le nombre de place d'un évenements</p>",
    "parameter": {
      "fields": {
        "Parameter": [
          {
            "group": "Parameter",
            "type": "Number",
            "optional": false,
            "field": "id",
            "description": "<p>id de l'événement.</p>"
          }
        ]
      }
    },
    "success": {
      "examples": [
        {
          "title": "Success-Response:",
          "content": "HTTP/1.1 200 OK\n14",
          "type": "json"
        }
      ]
    },
    "version": "0.0.0",
    "filename": "api/app/doc.php",
    "groupTitle": "Event"
  },
  {
    "type": "post",
    "url": "/rechercheEvent/",
    "title": "Recherche Event",
    "name": "postRechercheEvent",
    "group": "Event",
    "description": "<p>Permet de rechercher des événements en fonction de certains paramètres.</p>",
    "parameter": {
      "fields": {
        "Parameter": [
          {
            "group": "Parameter",
            "type": "Text",
            "optional": false,
            "field": "motcle",
            "description": "<p>(optionnel) Mots clés de la recherche.</p>"
          },
          {
            "group": "Parameter",
            "type": "Number",
            "optional": false,
            "field": "categorie",
            "description": "<p>(optionnel) Catégorie de l'évenement : 1 Course à pied | 2 Natation | 3 VTT | 4 Marathon.</p>"
          },
          {
            "group": "Parameter",
            "type": "Text",
            "optional": false,
            "field": "niveau",
            "description": "<p>(optionnel) Niveau souhaité : Jeune | Senior | Elite | Espoir.</p>"
          },
          {
            "group": "Parameter",
            "type": "Text",
            "optional": false,
            "field": "ville",
            "description": "<p>(optionnel) Ville de l'événment.</p>"
          },
          {
            "group": "Parameter",
            "type": "Number",
            "optional": false,
            "field": "max-participant",
            "description": "<p>(optionnel) Nombre maximum de participant.</p>"
          }
        ]
      }
    },
    "success": {
      "examples": [
        {
          "title": "Success-Response:",
          "content": "HTTP/1.1 200 OK\n{\n  \"id_event\": 8,\n  \"intitule\": \"Natation\",\n  \"date_debut\": \"2016-03-16\",\n  \"date_fin\": \"2016-03-16\",\n  \"date_inscription\": \"0000-00-00\",\n  \"nb_place\": 12,\n  \"adresse\": \"50 rue Piscine\",\n  \"description\": \"Natation Cool !\",\n  \"photo\": \"images/natation.jpg\",\n  \"prix\": 15,\n  \"id_organisateur\": 2,\n  \"id_categorie\": 2,\n  \"id_ville\": 1,\n  \"date_ajout\": \"2016-03-15 03:06:19\",\n  \"categorie\": {\n    \"id_categorie\": 2,\n    \"titre\": \"Natation\"\n  },\n  \"ville\": {\n     \"id_ville\": 1,\n     \"ville\": \"Nancy\",\n     \"departement\": \"Meurthe-et-Moselle\",\n     \"code_postal\": 54000\n  }\n}",
          "type": "json"
        }
      ]
    },
    "version": "0.0.0",
    "filename": "api/app/doc.php",
    "groupTitle": "Event"
  },
  {
    "type": "post",
    "url": "/creaEvent/",
    "title": "Créer Event",
    "name": "creerEvent",
    "group": "Organisateur",
    "description": "<p>Permet de créer des événements en fonction de certains paramètres. Retourne un message et le numéro de l'évent.</p>",
    "parameter": {
      "fields": {
        "Parameter": [
          {
            "group": "Parameter",
            "type": "Text",
            "optional": false,
            "field": "email",
            "description": "<p>email de l'organisateur.</p>"
          },
          {
            "group": "Parameter",
            "type": "Number",
            "optional": false,
            "field": "pwd",
            "description": "<p>mdp de l'organisateur.</p>"
          },
          {
            "group": "Parameter",
            "type": "Text",
            "optional": false,
            "field": "nom_event",
            "description": "<p>Nom de l'event.</p>"
          },
          {
            "group": "Parameter",
            "type": "Date",
            "optional": false,
            "field": "date_debut",
            "description": "<p>Date début évent (YYYY-MM-DD).</p>"
          },
          {
            "group": "Parameter",
            "type": "Date",
            "optional": false,
            "field": "date_fin",
            "description": "<p>Date fin évent (YYYY-MM-DD).</p>"
          },
          {
            "group": "Parameter",
            "type": "Number",
            "optional": false,
            "field": "nb_place",
            "description": "<p>Nombre de place évent.</p>"
          },
          {
            "group": "Parameter",
            "type": "Text",
            "optional": false,
            "field": "adr_event",
            "description": "<p>adresse de l'event.</p>"
          },
          {
            "group": "Parameter",
            "type": "Text",
            "optional": false,
            "field": "nom_ville",
            "description": "<p>Nom ville de l'event.</p>"
          },
          {
            "group": "Parameter",
            "type": "Text",
            "optional": false,
            "field": "nom_dep",
            "description": "<p>Nom département de l'event.</p>"
          },
          {
            "group": "Parameter",
            "type": "Number",
            "optional": false,
            "field": "cp",
            "description": "<p>Code postal de l'évent.</p>"
          },
          {
            "group": "Parameter",
            "type": "Number",
            "optional": false,
            "field": "cat_event",
            "description": "<p>Catégorie de l'évenement : 1 Course à pied | 2 Natation | 3 VTT | 4 Marathon.</p>"
          },
          {
            "group": "Parameter",
            "type": "Text",
            "optional": false,
            "field": "photo_event",
            "description": "<p>photo de l'event.</p>"
          },
          {
            "group": "Parameter",
            "type": "Number",
            "optional": false,
            "field": "prix_event",
            "description": "<p>prix de l'évent.</p>"
          },
          {
            "group": "Parameter",
            "type": "Text",
            "optional": false,
            "field": "desc_event",
            "description": "<p>Description de l'event.</p>"
          },
          {
            "group": "Parameter",
            "type": "boolean",
            "optional": false,
            "field": "niveau1",
            "description": "<p>(optionnel) true|false  Jeune.</p>"
          },
          {
            "group": "Parameter",
            "type": "boolean",
            "optional": false,
            "field": "niveau2",
            "description": "<p>(optionnel) true|false  Senior.</p>"
          },
          {
            "group": "Parameter",
            "type": "boolean",
            "optional": false,
            "field": "niveau3",
            "description": "<p>(optionnel) true|false  Elite.</p>"
          },
          {
            "group": "Parameter",
            "type": "boolean",
            "optional": false,
            "field": "niveau4",
            "description": "<p>(optionnel) true|false  Espoir.</p>"
          },
          {
            "group": "Parameter",
            "type": "Text",
            "optional": false,
            "field": "ville",
            "description": "<p>(optionnel) Ville de l'événment.</p>"
          },
          {
            "group": "Parameter",
            "type": "Number",
            "optional": false,
            "field": "max-participant",
            "description": "<p>(optionnel) Nombre maximum de participant.</p>"
          }
        ]
      }
    },
    "success": {
      "examples": [
        {
          "title": "Success-Response:",
          "content": "HTTP/1.1 200 OK\n{\n  \"msg\": ok,\n  \"key\": 17,\n}",
          "type": "json"
        }
      ]
    },
    "version": "0.0.0",
    "filename": "api/app/doc.php",
    "groupTitle": "Organisateur"
  },
  {
    "type": "get",
    "url": "/inscritEvent/:id",
    "title": "Particpant Event",
    "name": "getInscritEvent",
    "group": "Partcipe",
    "description": "<p>Permet de retourner la liste des inscrits à un événement</p>",
    "parameter": {
      "fields": {
        "Parameter": [
          {
            "group": "Parameter",
            "type": "Number",
            "optional": false,
            "field": "id",
            "description": "<p>id de l'événement.</p>"
          }
        ]
      }
    },
    "success": {
      "examples": [
        {
          "title": "Success-Response:",
          "content": "HTTP/1.1 200 OK\n{\n  \"id_event\": 1,\n  \"id_participant\": 1,\n  \"id_niveau\": 0,\n  \"participant\": {\n    \"id_participant\": 1,\n    \"nom\": \"Rimet\",\n    \"prenom\": \"Anthony\",\n    \"email\": \"tp9.rimet@hotmail.fr\",\n    \"mdp\": \"-----\"\n  }\n},",
          "type": "json"
        }
      ]
    },
    "version": "0.0.0",
    "filename": "api/app/doc.php",
    "groupTitle": "Partcipe"
  },
  {
    "type": "get",
    "url": "/nbInscritEvent/:id",
    "title": "Nombre Particpant Event",
    "name": "getnbInscritEvent",
    "group": "Partcipe",
    "description": "<p>Permet de retourner le nombre d'inscrits à un événement</p>",
    "parameter": {
      "fields": {
        "Parameter": [
          {
            "group": "Parameter",
            "type": "Number",
            "optional": false,
            "field": "id",
            "description": "<p>id de l'événement.</p>"
          }
        ]
      }
    },
    "success": {
      "examples": [
        {
          "title": "Success-Response:",
          "content": "HTTP/1.1 200 OK\n14",
          "type": "json"
        }
      ]
    },
    "version": "0.0.0",
    "filename": "api/app/doc.php",
    "groupTitle": "Partcipe"
  },
  {
    "type": "post",
    "url": "/getDossard/:id",
    "title": "Get Dossard",
    "name": "postDossard",
    "group": "Participant",
    "parameter": {
      "fields": {
        "Parameter": [
          {
            "group": "Parameter",
            "type": "Number",
            "optional": false,
            "field": "id",
            "description": "<p>id de l'événement.</p>"
          },
          {
            "group": "Parameter",
            "type": "Text",
            "optional": false,
            "field": "mail",
            "description": "<p>mail du participant.</p>"
          },
          {
            "group": "Parameter",
            "type": "Text",
            "optional": false,
            "field": "pwd",
            "description": "<p>mot de passe du particpant.</p>"
          }
        ]
      }
    },
    "description": "<p>Permet de recuperer le numéro de dossar. Coupler le numéro avec codebarre.js</p>",
    "success": {
      "examples": [
        {
          "title": "Success-Response:",
          "content": "HTTP/1.1 200 OK\n{\n  \"msg\": \"ok\",\n  \"dossard\" :\"9845\"\n}",
          "type": "json"
        }
      ]
    },
    "version": "0.0.0",
    "filename": "api/app/doc.php",
    "groupTitle": "Participant"
  },
  {
    "type": "post",
    "url": "/inscriptionEvent/:id",
    "title": "Inscription Event",
    "name": "postInscription",
    "group": "Participant",
    "parameter": {
      "fields": {
        "Parameter": [
          {
            "group": "Parameter",
            "type": "Number",
            "optional": false,
            "field": "id",
            "description": "<p>id de l'événement.</p>"
          },
          {
            "group": "Parameter",
            "type": "Number",
            "optional": false,
            "field": "form",
            "description": "<p>1 pour un nouveau participant | 2 pour une personne qui a déjà participé à un événement .</p>"
          },
          {
            "group": "Parameter",
            "type": "Text",
            "optional": false,
            "field": "mail",
            "description": "<p>mail du participant.</p>"
          },
          {
            "group": "Parameter",
            "type": "Text",
            "optional": false,
            "field": "pwd",
            "description": "<p>mot de passe du particpant.</p>"
          },
          {
            "group": "Parameter",
            "type": "Text",
            "optional": false,
            "field": "nom",
            "description": "<p>(optionnel si form 2)nom du participant.</p>"
          },
          {
            "group": "Parameter",
            "type": "Text",
            "optional": false,
            "field": "prenom",
            "description": "<p>(optionnel si form 2) prenom du participant.</p>"
          }
        ]
      }
    },
    "description": "<p>Permet de s'inscrire Renvoie un message de confirmation ou non.</p>",
    "success": {
      "examples": [
        {
          "title": "Success-Response:",
          "content": "HTTP/1.1 200 OK\n{\n  \"msg\": \"ok\",\n  \"participant\": {\n    \"id_participant\": 6,\n    \"nom\": \"Rimet\",\n    \"prenom\": \"anthony\",\n    \"email\": \"tp9.rimettdsf@hotmail.fr\",\n    \"mdp\": \"000\"\n  }\n}",
          "type": "json"
        }
      ]
    },
    "version": "0.0.0",
    "filename": "api/app/doc.php",
    "groupTitle": "Participant"
  },
  {
    "type": "delete",
    "url": "/desinscriptionEvent/:id",
    "title": "Desinscription Event",
    "name": "postdesInscription",
    "group": "Participant",
    "parameter": {
      "fields": {
        "Parameter": [
          {
            "group": "Parameter",
            "type": "Number",
            "optional": false,
            "field": "id",
            "description": "<p>id de l'événement.</p>"
          },
          {
            "group": "Parameter",
            "type": "Text",
            "optional": false,
            "field": "mail",
            "description": "<p>mail du participant.</p>"
          },
          {
            "group": "Parameter",
            "type": "Text",
            "optional": false,
            "field": "pwd",
            "description": "<p>mot de passe du particpant.</p>"
          }
        ]
      }
    },
    "description": "<p>Permet de se déinscrire à un évent. Renvoie un message de confirmation ou non.</p>",
    "success": {
      "examples": [
        {
          "title": "Success-Response:",
          "content": "HTTP/1.1 200 OK\n{\n  \"msg\": \"desincrit\",\n}",
          "type": "json"
        }
      ]
    },
    "version": "0.0.0",
    "filename": "api/app/doc.php",
    "groupTitle": "Participant"
  }
]
